Name         = Focus Meter System
Version      = 1.1.1
Essentials   = 20.1
Requires     = Essentials Deluxe,1.2.5
Website      = https://www.pokecommunity.com/showthread.php?t=479160
Credits      = Lucidious89